…
``` r
#Density per taxon from each sample in stage 4
plotting_names %>% 
  group_by(id, plotting_name, area, stage) %>% 
  summarise(avg_density = sum(avg_density)) %>%
  arrange(desc(avg_density)) %>%
  filter(stage == 4)
```

    ## `summarise()` has grouped output by 'id', 'plotting_name', 'area'. You can
    ## override using the `.groups` argument.

    ## # A tibble: 45 × 5
    ## # Groups:   id, plotting_name, area [45]
    ##    id    plotting_name    area stage avg_density
    ##    <chr> <chr>           <dbl> <dbl>       <dbl>
    ##  1 26_2  Jassa marmorata    26     4       611. 
    ##  2 26_1  Jassa marmorata    26     4       610. 
    ##  3 18_2  Jassa marmorata    18     4       204. 
    ##  4 26_2  Mytilus            26     4       142. 
    ##  5 26_3  Jassa marmorata    26     4       132. 
    ##  6 26_1  Mytilus            26     4       103. 
    ##  7 25_2  Jassa marmorata    25     4        88.9
    ##  8 25_2  Tricellaria sp.    25     4        37.3
    ##  9 18_1  Jassa marmorata    18     4        31.2
    ## 10 26_3  Mytilus            26     4        28.5
    ## # ℹ 35 more rows
